<mxfile host="app.diagrams.net" modified="2021-07-23T03:10:12.132Z" agent="5.0 (Windows NT 10.0; Win64; x64) AppleWebKit/537.36 (KHTML, like Gecko) Chrome/91.0.4472.164 Safari/537.36" etag="yOX5CAjYkhYcOMuUy7Q3" version="14.8.5" type="gitlab">
  <diagram id="C5RBs43oDa-KdzZeNtuy" name="Page-1">
    <mxGraphModel dx="1576" dy="773" grid="1" gridSize="10" guides="1" tooltips="1" connect="1" arrows="1" fold="1" page="1" pageScale="1" pageWidth="583" pageHeight="827" math="0" shadow="0">
      <root>
        <mxCell id="WIyWlLk6GJQsqaUBKTNV-0" />
        <mxCell id="WIyWlLk6GJQsqaUBKTNV-1" parent="WIyWlLk6GJQsqaUBKTNV-0" />
        <mxCell id="WIyWlLk6GJQsqaUBKTNV-2" value="" style="rounded=0;html=1;jettySize=auto;orthogonalLoop=1;fontSize=19;endArrow=block;endFill=0;endSize=8;strokeWidth=1;shadow=0;labelBackgroundColor=none;edgeStyle=orthogonalEdgeStyle;exitX=1;exitY=0.5;exitDx=0;exitDy=0;entryX=0;entryY=0.5;entryDx=0;entryDy=0;" parent="WIyWlLk6GJQsqaUBKTNV-1" source="bJuOt2Cz7p_02Y2qxMaL-0" target="bJuOt2Cz7p_02Y2qxMaL-1" edge="1">
          <mxGeometry relative="1" as="geometry">
            <mxPoint x="220" y="120" as="sourcePoint" />
          </mxGeometry>
        </mxCell>
        <mxCell id="bJuOt2Cz7p_02Y2qxMaL-0" value="Import libraries" style="rounded=0;whiteSpace=wrap;html=1;fontSize=22;" vertex="1" parent="WIyWlLk6GJQsqaUBKTNV-1">
          <mxGeometry x="-40" y="20" width="220" height="100" as="geometry" />
        </mxCell>
        <mxCell id="bJuOt2Cz7p_02Y2qxMaL-1" value="Authentication with key and token from Twitter" style="rounded=0;whiteSpace=wrap;html=1;fontSize=22;" vertex="1" parent="WIyWlLk6GJQsqaUBKTNV-1">
          <mxGeometry x="240" y="20" width="220" height="100" as="geometry" />
        </mxCell>
        <mxCell id="bJuOt2Cz7p_02Y2qxMaL-2" value="Define function for tweet stream" style="rounded=0;whiteSpace=wrap;html=1;fontSize=22;" vertex="1" parent="WIyWlLk6GJQsqaUBKTNV-1">
          <mxGeometry x="520" y="20" width="220" height="100" as="geometry" />
        </mxCell>
        <mxCell id="bJuOt2Cz7p_02Y2qxMaL-3" value="Collect tweets using selected search keyword" style="rounded=0;whiteSpace=wrap;html=1;fontSize=22;" vertex="1" parent="WIyWlLk6GJQsqaUBKTNV-1">
          <mxGeometry x="520" y="200" width="220" height="100" as="geometry" />
        </mxCell>
        <mxCell id="bJuOt2Cz7p_02Y2qxMaL-4" value="Export result data into .csv file" style="rounded=0;whiteSpace=wrap;html=1;fontSize=22;" vertex="1" parent="WIyWlLk6GJQsqaUBKTNV-1">
          <mxGeometry x="240" y="200" width="220" height="100" as="geometry" />
        </mxCell>
        <mxCell id="bJuOt2Cz7p_02Y2qxMaL-7" value="" style="rounded=0;html=1;jettySize=auto;orthogonalLoop=1;fontSize=19;endArrow=block;endFill=0;endSize=8;strokeWidth=1;shadow=0;labelBackgroundColor=none;edgeStyle=orthogonalEdgeStyle;exitX=1;exitY=0.5;exitDx=0;exitDy=0;entryX=0;entryY=0.5;entryDx=0;entryDy=0;" edge="1" parent="WIyWlLk6GJQsqaUBKTNV-1" source="bJuOt2Cz7p_02Y2qxMaL-1" target="bJuOt2Cz7p_02Y2qxMaL-2">
          <mxGeometry relative="1" as="geometry">
            <mxPoint x="220" y="70.00000000000006" as="sourcePoint" />
            <mxPoint x="279.9999999999999" y="70.00000000000006" as="targetPoint" />
          </mxGeometry>
        </mxCell>
        <mxCell id="bJuOt2Cz7p_02Y2qxMaL-8" value="" style="rounded=0;html=1;jettySize=auto;orthogonalLoop=1;fontSize=19;endArrow=block;endFill=0;endSize=8;strokeWidth=1;shadow=0;labelBackgroundColor=none;edgeStyle=orthogonalEdgeStyle;exitX=0.5;exitY=1;exitDx=0;exitDy=0;entryX=0.5;entryY=0;entryDx=0;entryDy=0;" edge="1" parent="WIyWlLk6GJQsqaUBKTNV-1" source="bJuOt2Cz7p_02Y2qxMaL-2" target="bJuOt2Cz7p_02Y2qxMaL-3">
          <mxGeometry relative="1" as="geometry">
            <mxPoint x="380" y="80.00000000000006" as="sourcePoint" />
            <mxPoint x="439.9999999999999" y="80.00000000000006" as="targetPoint" />
          </mxGeometry>
        </mxCell>
        <mxCell id="bJuOt2Cz7p_02Y2qxMaL-9" value="" style="rounded=0;html=1;jettySize=auto;orthogonalLoop=1;fontSize=19;endArrow=block;endFill=0;endSize=8;strokeWidth=1;shadow=0;labelBackgroundColor=none;edgeStyle=orthogonalEdgeStyle;exitX=0;exitY=0.5;exitDx=0;exitDy=0;entryX=1;entryY=0.5;entryDx=0;entryDy=0;" edge="1" parent="WIyWlLk6GJQsqaUBKTNV-1" source="bJuOt2Cz7p_02Y2qxMaL-3" target="bJuOt2Cz7p_02Y2qxMaL-4">
          <mxGeometry relative="1" as="geometry">
            <mxPoint x="240" y="90.00000000000006" as="sourcePoint" />
            <mxPoint x="299.9999999999999" y="90.00000000000006" as="targetPoint" />
          </mxGeometry>
        </mxCell>
      </root>
    </mxGraphModel>
  </diagram>
</mxfile>
